{
  "title":"冰箱全部产品",
  "rows":[
    {"href":"javascript:;","src":"static/img/cf-pro-img01.png","title":"COLMO BLANC 油烟机","type":"CXEP1022"}
    ,{"href":"javascript:;","src":"static/img/cf-pro-img02.png","title":"COLMO BLANC 冰箱","type":"CXEP12"}
    ,{"href":"javascript:;","src":"static/img/cf-pro-img03.png","title":"COLMO EVO 系列S83烟机","type":"CX022"}
    ,{"href":"javascript:;","src":"static/img/cf-pro-img04.png","title":"COLMO 熔幔岩对开门冰箱","type":"CEP12"}
    ,{"href":"javascript:;","src":"static/img/cf-pro-img05.png","title":"COLMO BLANC 煮饭机器人","type":"CXP134022"}
    ,{"href":"javascript:;","src":"static/img/cf-pro-img06.png","title":"EVO 系列QF6灶具","type":"CXEP1552"}
    ,{"href":"javascript:;","src":"static/img/cf-pro-img07.png","title":"COLMO 熔幔岩对开门冰箱","type":"CXP150"}
    ,{"href":"javascript:;","src":"static/img/cf-pro-img08.png","title":"COLMO BLANC 洗碗机","type":"XEP1066"}
    ,{"href":"javascript:;","src":"static/img/cf-pro-img01.png","title":"COLMO BLANC 油烟机","type":"EP13d022"}
    ,{"href":"javascript:;","src":"static/img/cf-pro-img02.png","title":"COLMO BLANC 冰箱","type":"CP1dd022"}
    ,{"href":"javascript:;","src":"static/img/cf-pro-img03.png","title":"COLMO BLANC 油烟机","type":"XP10f22"}
    ,{"href":"javascript:;","src":"static/img/cf-pro-img04.png","title":"COLMO BLANC 煮饭机器人","type":"CfXP122"}
  ],
  "total":16,"now":16
}
