{
  "rows":[
    {"src":"static/img/club-pro01.png","tit":"双立人圆形多功能锅","integral":"450积分","href":"huiyuan-take-over.html"},
    {"src":"static/img/club-pro02.png","tit":"Beats Solo3 头戴式耳机","integral":"800积分","href":"huiyuan-take-over.html"},
    {"src":"static/img/club-pro03.png","tit":"戴森(Dyson) 吸尘器V8","integral":"4500积分","href":"huiyuan-take-over.html"},
    {"src":"static/img/club-pro01.png","tit":"双立人圆形多功能锅","integral":"96000积分","href":"huiyuan-take-over.html"},
    {"src":"static/img/club-pro02.png","tit":"Beats Solo3 头戴式耳机","integral":"96000积分","href":"huiyuan-take-over.html"},
    {"src":"static/img/club-pro03.png","tit":"戴森(Dyson) 吸尘器V8","integral":"96000积分","href":"huiyuan-take-over.html"},
    {"src":"static/img/club-pro01.png","tit":"双立人圆形多功能锅","integral":"96000积分","href":"huiyuan-take-over.html"},
    {"src":"static/img/club-pro02.png","tit":"Beats Solo3 头戴式耳机","integral":"96000积分","href":"huiyuan-take-over.html"},
    {"src":"static/img/club-pro03.png","tit":"戴森(Dyson) 吸尘器V8","integral":"96000积分","href":"huiyuan-take-over.html"}
  ],
  "total":6,"now":1
}
