{
  "rows":[
    {"name":"李××","tel":"18801236666","add":"北京市东城区王府井大街77号","edit":"javascript:;","del":"javascript:;", "default":"default"},
    {"name":"李××","tel":"18801236666","add":"北京市东城区王府井大街77号","edit":"javascript:;","del":"javascript:;"},
    {"name":"李××","tel":"18801236666","add":"北京市东城区王府井大街77号","edit":"javascript:;","del":"javascript:;"},
    {"name":"李××","tel":"18801236666","add":"北京市东城区王府井大街77号","edit":"javascript:;","del":"javascript:;"}
  ],
  "total":6,"now":1
}
