{
  "rows":[
    {"href":"news-details.html","src":"static/img/news-img01.jpg","h4":"COLMO携手《尔雅》听梁文道讲述风雨十四载传奇上百年的包豪斯革命","sp":"2020-02-28"},
    {"href":"news-details.html","src":"static/img/news-img02.jpg","h4":"COLMO 揽获8项IF设计大奖，以理性美学引领家电设计风尚","sp":"2020-02-28"},
    {"href":"news-details.html","src":"static/img/news-img03.jpg","h4":"COLMO助力2019 沸雪AIR+STYLE 圆满落幕 引领全球菁英用户高阶生活之美","sp":"2020-02-28"},
    {"href":"news-details.html","src":"static/img/news-img04.jpg","h4":"COLMO对话设计大师：以理性美学定义家居生活高级感","sp":"2020-02-28"},
    {"href":"news-details.html","src":"static/img/news-img05.jpg","h4":"来自家电界的自然异想，COLMO跨界美学通向未来人居","sp":"2020-02-28"},
    {"href":"news-details.html","src":"static/img/news-img06.jpg","h4":"COLMO图灵空调2019IFA惊艳首秀","sp":"2020-02-28"},
    {"href":"news-details.html","src":"static/img/news-img07.jpg","h4":"COLMO 揽获8项IF设计大奖，以理性美学引领家电设计风尚","sp":"2020-02-28"},
    {"href":"news-details.html","src":"static/img/news-img08.jpg","h4":"COLMO携手《尔雅》听梁文道讲述风雨十四载传奇上百年的包豪斯革命","sp":"2020-02-28"},
    {"href":"news-details.html","src":"static/img/news-img09.jpg","h4":"COLMO携手《尔雅》听梁文道讲述风雨十四载传奇上百年的包豪斯革命","sp":"2020-02-28"},
    {"href":"news-details.html","src":"static/img/news-img10.jpg","h4":"COLMO携手《尔雅》听梁文道讲述风雨十四载传奇上百年的包豪斯革命","sp":"2020-02-28"},
    {"href":"news-details.html","src":"static/img/news-img11.jpg","h4":"COLMO携手《尔雅》听梁文道讲述风雨十四载传奇上百年的包豪斯革命","sp":"2020-02-28"},
    {"href":"news-details.html","src":"static/img/news-img12.jpg","h4":"COLMO携手《尔雅》听梁文道讲述风雨十四载传奇上百年的包豪斯革命","sp":"2020-02-28"}
  ],
  "total":6,"now":1
}
